2013-03-02 21:39:21,063 - StartTTBS - Initializing Dummy job

2013-03-02 21:39:21,197 - StartTTBS - Started a thread listening to automatednotification95

2013-03-02 21:39:24,804 - processInbox - Safety run picked up 2 emails for Dummy job

2013-03-02 21:54:06,145 - StartTTBS - Initializing Update PayPal Db from Email

2013-03-02 21:54:06,162 - StartTTBS - Initializing Dummy job

2013-03-02 21:54:06,852 - StartTTBS - Started a thread listening to automatednotification95

2013-03-03 16:25:57,205 - StartTTBS - Initializing Update PayPal Db from Email

2013-03-03 16:25:57,214 - StartTTBS - Initialization failed on Update PayPal Db from Email.
Traceback (most recent call last):
  File "StartTTBS.py", line 34, in StartTTBS
    mod.initialize_job(email_pm, db_pm, spdsht_pm, pwds)
TypeError: initialize_job() takes no arguments (4 given)
2013-03-03 16:26:01,737 - StartTTBS - Started a thread listening to automatednotification95

2013-03-03 16:26:28,377 - StartTTBS - Initializing Update PayPal Db from Email

2013-03-03 16:26:28,389 - StartTTBS - Initialization failed on Update PayPal Db from Email.
Traceback (most recent call last):
  File "StartTTBS.py", line 34, in StartTTBS
    mod.initialize_job()
  File "/home/jshor/Desktop/TTBS/TTBS Inbox Listeners/jobs/Paypal/updatePayPalFromEmail.py", line 36, in initialize_job
    with db_h_class(db_pm, pwds) as db_h:
  File "/home/jshor/Desktop/TTBS/TTBS Inbox Listeners/handlers/database/MySQLTools.py", line 51, in __init__
    raise DatabaseConnectionError
DatabaseConnectionError
2013-03-03 16:26:53,252 - StartTTBS - Initializing Update PayPal Db from Email

2013-03-03 16:26:53,285 - StartTTBS - Initialization failed on Update PayPal Db from Email.
Traceback (most recent call last):
  File "StartTTBS.py", line 34, in StartTTBS
    mod.initialize_job()
  File "/home/jshor/Desktop/TTBS/TTBS Inbox Listeners/jobs/Paypal/updatePayPalFromEmail.py", line 36, in initialize_job
    with db_h_class(db_pm, pwds) as db_h:
  File "/home/jshor/Desktop/TTBS/TTBS Inbox Listeners/handlers/database/MySQLTools.py", line 51, in __init__
    raise DatabaseConnectionError
DatabaseConnectionError
2013-03-03 16:26:57,453 - StartTTBS - Started a thread listening to automatednotification95

2013-03-03 16:33:35,638 - StartTTBS - Initializing Update PayPal Db from Email

2013-03-03 16:33:35,804 - StartTTBS - Started a thread listening to automatednotification95

2013-03-03 16:33:41,712 - processInbox - Safety run picked up 7 emails for Update PayPal Db from Email

2013-03-03 16:33:41,730 - updatePayPalFromEmail - PayPal Parsed Invoice 0148: 72.33 from Jennifer Choudhry

2013-03-03 16:33:43,135 - updatePayPalFromEmail - PayPal Parsed Invoice 0147: 46.61 from Rohan Karnik

2013-03-03 16:34:49,530 - StartTTBS - Initializing Update PayPal Db from Email

2013-03-03 16:34:49,693 - StartTTBS - Started a thread listening to automatednotification95

2013-03-03 16:34:54,587 - processInbox - Safety run picked up 7 emails for Update PayPal Db from Email

2013-03-03 16:34:54,592 - updatePayPalFromEmail - PayPal Parsed Invoice 0148: 72.33 from Jennifer Choudhry

2013-03-03 16:34:56,349 - updatePayPalFromEmail - PayPal Parsed Invoice 0147: 46.61 from Rohan Karnik

2013-03-03 16:37:00,164 - StartTTBS - Initializing Update PayPal Db from Email

2013-03-03 16:37:00,306 - StartTTBS - Started a thread listening to automatednotification95

2013-03-03 16:37:10,601 - processInbox - Safety run picked up 7 emails for Update PayPal Db from Email

2013-03-03 16:37:10,609 - updatePayPalFromEmail - PayPal Parsed Invoice 0148: 72.33 from Jennifer Choudhry

2013-03-03 16:37:12,453 - updatePayPalFromEmail - PayPal Parsed Invoice 0147: 46.61 from Rohan Karnik

2013-03-03 16:40:35,131 - StartTTBS - Initializing Update PayPal Db from Email

2013-03-03 16:40:35,282 - StartTTBS - Started a thread listening to automatednotification95

2013-03-03 16:40:42,991 - processInbox - Safety run picked up 7 emails for Update PayPal Db from Email

2013-03-03 16:40:42,996 - updatePayPalFromEmail - PayPal Parsed Invoice 0148: 72.33 from Jennifer Choudhry

2013-03-03 16:40:44,425 - updatePayPalFromEmail - PayPal Parsed Invoice 0147: 46.61 from Rohan Karnik

2013-03-03 16:42:22,813 - processInbox - Safety run picked up 1 emails for Update PayPal Db from Email

2013-03-03 16:42:22,817 - updatePayPalFromEmail - PayPal Parsed Old Invoice 0139: 31.20 from Junyu Zuo

